Date,Open,High,Low,Close,Adj Close,Volume
2023-06-06,9266.000000,9310.799805,9242.299805,9310.799805,9310.799805,94770400
2023-06-07,9296.299805,9401.799805,9294.900391,9359.799805,9359.799805,100905200
2023-06-08,9358.700195,9427.599609,9331.700195,9338.299805,9338.299805,109449100
2023-06-09,9345.700195,9370.400391,9288.599609,9309.700195,9309.700195,84882800
2023-06-12,9345.900391,9382.099609,9328.500000,9344.400391,9344.400391,95656000
2023-06-13,9357.700195,9357.700195,9261.099609,9333.700195,9333.700195,121829000
2023-06-14,9333.700195,9468.099609,9315.900391,9432.799805,9432.799805,155571800
2023-06-15,9404.099609,9453.700195,9389.299805,9430.799805,9430.799805,123381800
2023-06-16,9465.000000,9580.799805,9428.500000,9495.000000,9495.000000,384178600
2023-06-19,9457.799805,9503.200195,9412.099609,9431.900391,9431.900391,87888300
2023-06-20,9418.299805,9469.099609,9401.000000,9439.799805,9439.799805,87716600
2023-06-21,9431.200195,9463.500000,9415.299805,9436.400391,9436.400391,101629200
2023-06-22,9365.500000,9365.900391,9284.200195,9364.700195,9364.700195,108508000
2023-06-23,9305.599609,9334.099609,9239.700195,9265.799805,9265.799805,124528300
2023-06-26,9283.099609,9306.900391,9198.700195,9274.000000,9274.000000,110992200
2023-06-27,9309.200195,9399.500000,9287.299805,9393.000000,9393.000000,120553900
2023-06-28,9421.000000,9489.700195,9414.000000,9481.299805,9481.299805,126194000
2023-06-29,9486.200195,9524.099609,9479.000000,9510.599609,9510.599609,103479900
2023-06-30,9541.400391,9642.299805,9534.599609,9593.000000,9593.000000,172932500
2023-07-03,9604.299805,9658.599609,9598.599609,9644.799805,9644.799805,119153100
2023-07-04,9635.000000,9649.799805,9580.900391,9588.400391,9588.400391,97859400
2023-07-05,9541.700195,9567.900391,9470.700195,9486.299805,9486.299805,116017000
2023-07-06,9384.599609,9435.900391,9261.200195,9285.000000,9285.000000,142178200
2023-07-07,9246.900391,9258.599609,9169.799805,9248.799805,9248.799805,114921000
2023-07-10,9210.500000,9282.500000,9183.000000,9252.900391,9252.900391,91453400
2023-07-11,9295.799805,9333.700195,9226.700195,9331.099609,9331.099609,100280000
2023-07-12,9356.500000,9464.799805,9344.599609,9453.700195,9453.700195,155443100
2023-07-13,9459.099609,9523.599609,9444.799805,9478.700195,9478.700195,118162000
2023-07-14,9468.900391,9507.200195,9437.799805,9438.299805,9438.299805,105127200
2023-07-17,9414.900391,9483.299805,9402.599609,9438.000000,9438.000000,77438400
2023-07-18,9446.500000,9471.799805,9388.900391,9455.700195,9455.700195,88491000
2023-07-19,9482.799805,9532.400391,9433.099609,9451.799805,9451.799805,92225100
2023-07-20,9445.099609,9539.500000,9444.000000,9519.599609,9519.599609,108475200
2023-07-21,9521.000000,9571.500000,9481.200195,9571.500000,9571.500000,114901000
2023-07-24,9417.000000,9543.500000,9401.000000,9543.500000,9543.500000,121342800
2023-07-25,9534.000000,9542.799805,9497.799805,9519.200195,9519.200195,86427600
2023-07-26,9515.900391,9604.099609,9489.599609,9600.500000,9600.500000,164640400
2023-07-27,9646.299805,9715.099609,9611.799805,9694.700195,9694.700195,203878100
2023-07-28,9682.200195,9741.900391,9674.099609,9685.099609,9685.099609,222144300
2023-07-31,9675.900391,9688.299805,9641.500000,9641.500000,9641.500000,160130500
2023-08-01,9639.900391,9657.200195,9491.700195,9502.900391,9502.900391,136369400
2023-08-02,9409.500000,9424.400391,9311.000000,9328.700195,9328.700195,223086300
2023-08-03,9291.000000,9341.900391,9244.299805,9307.099609,9307.099609,139652300
2023-08-04,9333.900391,9377.599609,9278.900391,9368.400391,9368.400391,111010600
2023-08-07,9346.099609,9369.400391,9273.500000,9358.599609,9358.599609,80687700
2023-08-08,9292.099609,9361.299805,9213.599609,9301.799805,9301.799805,136457400
2023-08-09,9403.500000,9420.799805,9334.299805,9354.400391,9354.400391,88364200
2023-08-10,9404.799805,9522.900391,9396.700195,9502.200195,9502.200195,109204400
2023-08-11,9476.700195,9493.900391,9415.400391,9434.299805,9434.299805,80015200
2023-08-14,9423.700195,9471.700195,9399.599609,9429.599609,9429.599609,71422800
2023-08-15,9427.500000,9435.099609,9305.900391,9347.500000,9347.500000,63980500
2023-08-16,9318.099609,9404.000000,9313.200195,9350.500000,9350.500000,60764100
2023-08-17,9312.799805,9356.400391,9270.299805,9278.000000,9278.000000,83008600
2023-08-18,9250.000000,9273.799805,9192.700195,9267.700195,9267.700195,93675700
2023-08-21,9268.599609,9367.599609,9239.400391,9262.799805,9262.799805,72507400
2023-08-22,9310.700195,9370.700195,9302.900391,9314.000000,9314.000000,66059900
2023-08-23,9333.799805,9395.400391,9292.099609,9315.599609,9315.599609,74919900
2023-08-24,9385.900391,9415.500000,9321.500000,9324.700195,9324.700195,67799700
2023-08-25,9308.700195,9414.200195,9304.400391,9338.900391,9338.900391,75145000
2023-08-28,9398.200195,9524.900391,9397.700195,9490.099609,9490.099609,73880200
2023-08-29,9513.799805,9592.700195,9491.099609,9581.200195,9581.200195,106623300
2023-08-30,9595.099609,9614.700195,9531.900391,9551.099609,9551.099609,99874200
2023-08-31,9556.900391,9606.200195,9505.900391,9505.900391,9505.900391,212295400
2023-09-01,9512.799805,9552.900391,9449.599609,9449.599609,9449.599609,108269100
2023-09-04,9486.700195,9515.000000,9396.200195,9416.299805,9416.299805,69158100
2023-09-05,9396.200195,9449.599609,9353.200195,9392.000000,9392.000000,87067800
2023-09-06,9382.000000,9382.000000,9289.299805,9314.400391,9314.400391,139455100
2023-09-07,9288.099609,9379.900391,9277.799805,9310.000000,9310.000000,112157000
2023-09-08,9357.200195,9372.299805,9238.500000,9364.599609,9364.599609,92062600
2023-09-11,9403.500000,9457.900391,9367.299805,9435.200195,9435.200195,85725100
2023-09-12,9454.500000,9501.700195,9448.000000,9455.400391,9455.400391,107657600
2023-09-13,9435.099609,9448.299805,9330.599609,9424.099609,9424.099609,105247500
2023-09-14,9422.299805,9563.099609,9380.000000,9549.000000,9549.000000,133995400
2023-09-15,9605.299805,9642.000000,9524.700195,9549.700195,9549.700195,348282000
2023-09-18,9530.799805,9553.900391,9455.299805,9482.099609,9482.099609,109941400
2023-09-19,9459.700195,9550.099609,9458.500000,9527.200195,9527.200195,88182400
2023-09-20,9550.000000,9672.200195,9539.099609,9645.799805,9645.799805,125806100
2023-09-21,9582.099609,9606.799805,9475.200195,9548.900391,9548.900391,120718600
2023-09-22,9499.000000,9542.599609,9477.000000,9502.000000,9502.000000,100119800
2023-09-25,9468.500000,9523.900391,9337.700195,9386.000000,9386.000000,107471700
2023-09-26,9327.500000,9405.400391,9307.099609,9366.900391,9366.900391,121930200
2023-09-27,9366.000000,9420.900391,9311.799805,9331.900391,9331.900391,106336400
2023-09-28,9344.099609,9442.299805,9311.500000,9426.799805,9426.799805,171533200
2023-09-29,9458.500000,9508.299805,9423.000000,9428.000000,9428.000000,139259800
2023-10-02,9447.700195,9495.099609,9299.400391,9319.000000,9319.000000,157515300
2023-10-03,9284.599609,9369.599609,9164.000000,9165.500000,9165.500000,142881400
2023-10-04,9137.900391,9186.400391,9077.599609,9102.900391,9102.900391,139573600
2023-10-05,9160.200195,9193.299805,9096.000000,9157.700195,9157.700195,114922100
2023-10-06,9179.900391,9235.799805,9110.400391,9235.799805,9235.799805,122390000
2023-10-09,9182.900391,9223.000000,9111.799805,9151.299805,9151.299805,135294000
2023-10-10,9217.900391,9371.900391,9217.900391,9352.099609,9352.099609,129139100
2023-10-11,9306.799805,9381.700195,9297.500000,9360.400391,9360.400391,108807000
2023-10-12,9403.799805,9434.500000,9322.000000,9336.000000,9336.000000,94383400
2023-10-13,9317.200195,9363.400391,9223.799805,9232.900391,9232.900391,143092900
2023-10-16,9244.799805,9306.000000,9174.200195,9287.099609,9287.099609,105248200
2023-10-17,9268.400391,9323.400391,9219.500000,9298.500000,9298.500000,79826100
2023-10-18,9278.200195,9305.700195,9202.500000,9212.700195,9212.700195,108127200
2023-10-19,9176.799805,9189.700195,9101.099609,9146.799805,9146.799805,143366500
2023-10-20,9067.099609,9098.299805,9021.799805,9029.099609,9029.099609,230887100
2023-10-23,9028.700195,9037.000000,8920.700195,8995.500000,8995.500000,139157300
2023-10-24,9004.200195,9029.000000,8950.799805,8975.799805,8975.799805,162189000
2023-10-25,8961.799805,9000.799805,8898.000000,8984.799805,8984.799805,149177700
2023-10-26,8926.900391,8978.500000,8879.299805,8962.799805,8962.799805,164229500
2023-10-27,9015.700195,9037.299805,8904.099609,8918.299805,8918.299805,178436300
2023-10-30,8955.200195,9048.400391,8945.900391,9013.900391,9013.900391,164425900
2023-10-31,8978.599609,9084.900391,8959.599609,9017.299805,9017.299805,189064200
2023-11-01,9039.799805,9093.299805,8999.799805,9075.000000,9075.000000,121703800
2023-11-02,9122.400391,9278.099609,9101.900391,9260.400391,9260.400391,152576500
2023-11-03,9294.900391,9339.799805,9249.599609,9293.900391,9293.900391,152566200
2023-11-06,9296.400391,9313.599609,9224.700195,9241.500000,9241.500000,114365200
2023-11-07,9208.500000,9279.799805,9201.299805,9235.900391,9235.900391,113897000
2023-11-08,9203.400391,9326.500000,9200.299805,9283.799805,9283.799805,146534900
2023-11-09,9295.700195,9420.200195,9291.200195,9405.200195,9405.200195,133336100
2023-11-10,9367.400391,9415.200195,9329.299805,9371.700195,9371.700195,122578700
2023-11-13,9409.599609,9463.299805,9401.000000,9461.700195,9461.700195,142296700
2023-11-14,9488.000000,9636.599609,9471.799805,9623.299805,9623.299805,171920600
2023-11-15,9636.099609,9684.900391,9604.000000,9640.700195,9640.700195,161156100
2023-11-16,9652.500000,9710.400391,9652.500000,9667.400391,9667.400391,132367600
2023-11-17,9697.200195,9774.700195,9693.599609,9761.400391,9761.400391,249654700
2023-11-20,9761.200195,9857.000000,9759.700195,9839.000000,9839.000000,144062800
2023-11-21,9832.500000,9858.400391,9801.700195,9827.500000,9827.500000,141826400
2023-11-22,9852.500000,9897.200195,9847.099609,9887.400391,9887.400391,125070100
2023-11-23,9891.000000,9921.099609,9873.900391,9905.500000,9905.500000,111600100
2023-11-24,9906.400391,9957.299805,9901.900391,9939.000000,9939.000000,93309200
2023-11-27,9927.299805,9983.900391,9925.799805,9936.099609,9936.099609,112098900
2023-11-28,9925.200195,10014.299805,9919.500000,10003.400391,10003.400391,118647800
2023-11-29,10018.400391,10097.900391,10018.400391,10062.599609,10062.599609,129372500
2023-11-30,10079.299805,10103.799805,10053.799805,10058.200195,10058.200195,252839300
2023-12-01,10085.900391,10140.799805,10080.900391,10140.799805,10140.799805,117751200
2023-12-04,10135.799805,10201.700195,10135.799805,10178.299805,10178.299805,105497200
2023-12-05,10174.799805,10262.900391,10166.099609,10238.400391,10238.400391,137169800
2023-12-06,10263.400391,10301.299805,10229.700195,10258.099609,10258.099609,134294600
2023-12-07,10226.000000,10246.700195,10113.900391,10146.000000,10146.000000,210704200
2023-12-08,10153.500000,10229.200195,10139.400391,10223.400391,10223.400391,139106200
2023-12-11,10216.500000,10226.599609,10178.200195,10198.000000,10198.000000,140388800
2023-12-12,10184.799805,10198.400391,10111.400391,10118.700195,10118.700195,145123700
2023-12-13,10112.599609,10158.700195,10077.000000,10096.099609,10096.099609,142958200
2023-12-14,10225.900391,10257.799805,10124.099609,10171.700195,10171.700195,255848900
2023-12-15,10192.299805,10200.799805,10050.700195,10095.599609,10095.599609,330245400
2023-12-18,10063.500000,10125.799805,10039.299805,10054.900391,10054.900391,134020100
2023-12-19,10055.200195,10123.099609,10023.799805,10106.700195,10106.700195,115239700
2023-12-20,10148.099609,10158.200195,10037.500000,10101.000000,10101.000000,146798700
2023-12-21,10065.400391,10108.500000,10063.299805,10104.299805,10104.299805,84138300
2023-12-22,10094.099609,10143.099609,10081.000000,10111.900391,10111.900391,91972000
2023-12-27,10091.799805,10146.799805,10077.900391,10121.799805,10121.799805,130947500
2023-12-28,10126.299805,10136.299805,10074.599609,10086.200195,10086.200195,95148800
2023-12-29,10090.900391,10143.599609,10090.900391,10102.099609,10102.099609,101943700
2024-01-02,10161.099609,10287.900391,10122.400391,10182.099609,10182.099609,137052900
2024-01-03,10183.799805,10209.799805,10038.099609,10053.400391,10053.400391,136612300
2024-01-04,10067.500000,10190.799805,10067.500000,10182.400391,10182.400391,110894200
2024-01-05,10130.299805,10192.000000,10061.200195,10164.500000,10164.500000,145036200
2024-01-08,10140.500000,10209.000000,10079.299805,10209.000000,10209.000000,110110400
2024-01-09,10159.000000,10181.900391,9994.000000,10060.299805,10060.299805,157192400
2024-01-10,10053.900391,10079.799805,10017.799805,10067.099609,10067.099609,136822100
2024-01-11,10112.700195,10151.799805,10004.900391,10004.900391,10004.900391,134217300
2024-01-12,10024.799805,10134.700195,10023.799805,10094.799805,10094.799805,134251900
2024-01-15,10118.900391,10135.299805,10048.599609,10076.900391,10076.900391,87931100
2024-01-16,10022.700195,10024.299805,9955.000000,9994.099609,9994.099609,138279400
2024-01-17,9916.799805,9916.799805,9826.599609,9867.799805,9867.799805,133882600
2024-01-18,9876.799805,9901.500000,9798.799805,9880.299805,9880.299805,134134100
2024-01-19,9915.799805,9931.000000,9823.700195,9858.299805,9858.299805,146590900
2024-01-22,9915.200195,9980.799805,9903.200195,9968.099609,9968.099609,105116800
2024-01-23,9980.500000,10000.599609,9845.099609,9859.200195,9859.200195,119165400
2024-01-24,9897.900391,9974.000000,9892.799805,9974.000000,9974.000000,126373600
2024-01-25,9941.700195,9941.700195,9863.799805,9916.599609,9916.599609,162814100
2024-01-26,9923.500000,9973.000000,9910.099609,9936.599609,9936.599609,107711200
2024-01-29,9938.299805,9944.000000,9864.200195,9890.299805,9890.299805,112770300
2024-01-30,9902.900391,10050.700195,9888.400391,10039.299805,10039.299805,139738300
2024-01-31,10066.200195,10128.000000,10042.799805,10077.700195,10077.700195,171867800
2024-02-01,10034.000000,10149.599609,9986.400391,10014.000000,10014.000000,208762700
2024-02-02,10087.599609,10132.799805,10033.700195,10062.500000,10062.500000,161360600
2024-02-05,10047.400391,10083.099609,9928.599609,9941.299805,9941.299805,187035600
2024-02-06,9988.200195,10013.599609,9941.599609,10003.000000,10003.000000,148017600
2024-02-07,9978.900391,9985.900391,9886.500000,9920.200195,9920.200195,154163400
2024-02-08,9913.099609,9952.400391,9899.400391,9905.400391,9905.400391,110769400
2024-02-09,9906.000000,9921.400391,9857.400391,9896.599609,9896.599609,153135700
2024-02-12,9938.500000,9987.000000,9929.299805,9984.700195,9984.700195,95624200
2024-02-13,9987.799805,10004.099609,9908.200195,9925.400391,9925.400391,130998800
2024-02-14,9922.599609,9991.500000,9913.299805,9916.599609,9916.599609,119508700
2024-02-15,9955.000000,9963.900391,9861.200195,9927.299805,9927.299805,113529500
2024-02-16,9975.200195,9978.400391,9841.599609,9886.400391,9886.400391,126325600
2024-02-19,9884.599609,9954.799805,9878.299805,9944.799805,9944.799805,87430700
2024-02-20,9940.099609,10048.299805,9926.500000,10038.200195,10038.200195,118742600
2024-02-21,10049.799805,10127.299805,10031.500000,10107.200195,10107.200195,105194400
2024-02-22,10179.099609,10196.400391,10120.900391,10138.900391,10138.900391,155634000
2024-02-23,10123.299805,10136.700195,10064.299805,10130.599609,10130.599609,108883100
2024-02-26,10120.400391,10157.299805,10102.500000,10138.400391,10138.400391,104520800
2024-02-27,10111.400391,10125.299805,10058.400391,10113.799805,10113.799805,110771900
2024-02-28,10096.799805,10127.099609,10028.900391,10068.599609,10068.599609,128594200
2024-02-29,10054.799805,10095.700195,10001.000000,10001.299805,10001.299805,340767500
2024-03-01,10015.000000,10108.000000,10008.799805,10064.700195,10064.700195,172079700
2024-03-04,10069.599609,10084.500000,10035.599609,10069.799805,10069.799805,125103700
2024-03-05,10060.099609,10121.700195,10032.099609,10117.099609,10117.099609,132426700
2024-03-06,10116.000000,10246.200195,10105.500000,10197.200195,10197.200195,182074800
2024-03-07,10167.799805,10359.200195,10164.799805,10319.599609,10319.599609,202030200
2024-03-08,10321.200195,10366.900391,10304.200195,10305.700195,10305.700195,168061400
2024-03-11,10280.599609,10330.900391,10268.900391,10325.700195,10325.700195,149087900
2024-03-12,10357.500000,10403.200195,10342.900391,10388.900391,10388.900391,185340700
2024-03-13,10436.299805,10594.099609,10431.799805,10560.500000,10560.500000,169503900
2024-03-14,10567.400391,10606.900391,10476.500000,10490.500000,10490.500000,160547200
2024-03-15,10490.000000,10640.799805,10489.700195,10597.900391,10597.900391,487575600
2024-03-18,10597.099609,10657.000000,10576.599609,10596.700195,10596.700195,145580000
2024-03-19,10604.599609,10711.599609,10589.799805,10701.400391,10701.400391,138362500
2024-03-20,10699.900391,10752.500000,10680.299805,10752.500000,10752.500000,142721700
2024-03-21,10820.799805,10931.700195,10817.900391,10867.500000,10867.500000,186540700
2024-03-22,10856.900391,10963.900391,10846.700195,10943.200195,10943.200195,170404400
2024-03-25,10918.000000,10986.000000,10911.500000,10952.200195,10952.200195,131499600
2024-03-26,10965.299805,11008.500000,10950.200195,10991.500000,10991.500000,139644100
2024-03-27,11007.500000,11140.099609,11000.799805,11111.299805,11111.299805,181418900
2024-03-28,11075.700195,11105.599609,11057.400391,11074.599609,11074.599609,182530200
2024-04-02,11034.599609,11095.500000,10953.900391,10975.599609,10975.599609,157049100
2024-04-03,10981.099609,11052.799805,10959.400391,11032.299805,11032.299805,143750000
2024-04-04,11049.500000,11111.200195,11042.000000,11090.900391,11090.900391,167469700
2024-04-05,10967.400391,11000.200195,10879.900391,10916.000000,10916.000000,198548000
2024-04-08,10864.200195,10932.299805,10846.000000,10911.799805,10911.799805,125829800
2024-04-09,10909.099609,10909.099609,10809.500000,10816.000000,10816.000000,139504300
2024-04-10,10863.299805,10879.200195,10697.400391,10775.000000,10775.000000,149227000
2024-04-11,10761.000000,10782.599609,10591.400391,10649.799805,10649.799805,183036500
2024-04-12,10707.700195,10781.599609,10660.700195,10686.000000,10686.000000,154049100
2024-04-15,10668.700195,10750.200195,10660.200195,10687.200195,10687.200195,144065900
2024-04-16,10575.799805,10605.500000,10499.200195,10526.900391,10526.900391,169501300
2024-04-17,10532.000000,10704.200195,10530.000000,10633.900391,10633.900391,120116300
2024-04-18,10694.900391,10776.299805,10686.200195,10765.000000,10765.000000,164337900
2024-04-19,10680.099609,10747.099609,10611.900391,10729.500000,10729.500000,204551500
2024-04-22,10818.900391,10895.799805,10783.900391,10890.200195,10890.200195,140903400
2024-04-23,10927.799805,11080.000000,10924.299805,11075.400391,11075.400391,156006800
2024-04-24,11110.000000,11110.000000,11005.000000,11027.799805,11027.799805,138502500
2024-04-25,11049.099609,11095.000000,10887.400391,10983.700195,10983.700195,306290600
2024-04-26,11044.500000,11168.700195,11037.000000,11154.599609,11154.599609,188579200
2024-04-29,11179.500000,11228.299805,11057.799805,11100.799805,11100.799805,201545700
2024-04-30,11064.200195,11089.799805,10839.400391,10854.400391,10854.400391,314561700
2024-05-02,10857.299805,10920.099609,10845.799805,10872.000000,10872.000000,254697600
2024-05-03,10907.500000,10953.299805,10820.500000,10854.700195,10854.700195,204827400
2024-05-06,10877.900391,10945.700195,10847.099609,10917.500000,10917.500000,142156400
2024-05-07,10972.200195,11089.799805,10958.000000,11080.900391,11080.900391,206435300
2024-05-08,11104.500000,11160.000000,11076.099609,11153.000000,11153.000000,206758900
2024-05-09,11112.700195,11121.900391,11004.900391,11050.099609,11050.099609,212325300
2024-05-10,11045.900391,11137.700195,11045.099609,11105.500000,11105.500000,155650400
2024-05-13,11104.200195,11152.000000,11073.900391,11152.000000,11152.000000,106337500
2024-05-14,11180.500000,11246.299805,11138.400391,11239.299805,11239.299805,137103300
2024-05-15,11260.900391,11377.099609,11260.299805,11362.799805,11362.799805,159465800
2024-05-16,11376.400391,11385.700195,11293.400391,11299.299805,11299.299805,141057900
2024-05-17,11252.599609,11343.000000,11246.599609,11327.700195,11327.700195,143697900
2024-05-20,11333.200195,11371.500000,11312.500000,11339.500000,11339.500000,90520700
2024-05-21,11326.000000,11371.299805,11291.500000,11334.900391,11334.900391,123348800
2024-05-22,11324.400391,11354.099609,11268.400391,11329.000000,11329.000000,123189800
2024-05-23,11331.799805,11360.200195,11277.000000,11311.099609,11311.099609,109142200
2024-05-24,11236.000000,11261.599609,11169.200195,11246.000000,11246.000000,110214700
2024-05-27,11260.099609,11325.500000,11248.900391,11325.500000,11325.500000,69177700
2024-05-28,11337.599609,11355.099609,11240.000000,11276.000000,11276.000000,96442400
2024-05-29,11241.000000,11260.900391,11135.000000,11145.099609,11145.099609,121731200
2024-05-30,11125.299805,11350.900391,11125.299805,11338.200195,11338.200195,127541700
2024-05-31,11353.500000,11361.200195,11278.599609,11322.000000,11322.000000,714440000
2024-06-03,11403.200195,11452.900391,11378.000000,11397.200195,11397.200195,128800700
2024-06-04,11384.000000,11402.200195,11213.200195,11286.400391,11286.400391,198258400
2024-06-05,11378.500000,11411.900391,11324.200195,11353.099609,11353.099609,119487728