Date,Open,High,Low,Close,Adj Close,Volume
2023-06-22,21.139999,21.139999,20.860001,20.950001,18.897621,1229938
2023-06-23,20.920000,20.950001,20.709999,20.850000,18.807415,1704594
2023-06-26,21.350000,21.350000,20.770000,21.110001,19.041946,3961763
2023-06-27,21.209999,21.340000,21.070000,21.340000,19.249413,1235178
2023-06-28,21.389999,21.510000,21.309999,21.450001,19.348637,1772588
2023-06-29,19.900000,19.969999,19.510000,19.655001,19.144482,2518254
2023-06-30,19.684999,19.825001,19.580000,19.650000,19.139610,1575104
2023-07-03,19.549999,19.820000,19.510000,19.820000,19.305195,2308099
2023-07-04,20.010000,20.049999,19.820000,19.860001,19.344156,1136036
2023-07-05,19.870001,20.129999,19.709999,19.709999,19.198051,1445106
2023-07-06,19.639999,19.844999,19.375000,19.375000,18.871754,982285
2023-07-07,19.370001,19.480000,19.180000,19.430000,18.925325,981995
2023-07-10,19.370001,19.434999,19.215000,19.290001,18.788961,1993833
2023-07-11,19.450001,19.570000,19.340000,19.445000,18.939934,613239
2023-07-12,19.440001,19.620001,19.395000,19.605000,19.095779,680636
2023-07-13,19.705000,19.805000,19.610001,19.700001,19.188313,589828
2023-07-14,19.700001,19.745001,19.549999,19.639999,19.129869,586264
2023-07-17,19.655001,19.790001,19.559999,19.575001,19.066559,604010
2023-07-18,19.549999,19.555000,19.344999,19.344999,18.842531,808187
2023-07-19,19.360001,19.469999,19.155001,19.344999,18.842531,707853
2023-07-20,19.389999,19.629999,19.379999,19.615000,19.105518,1007407
2023-07-21,19.750000,19.875000,19.670000,19.844999,19.329544,922980
2023-07-24,19.240000,19.510000,18.920000,19.299999,18.798700,2075825
2023-07-25,19.365000,19.709999,19.129999,19.355000,18.852272,1055611
2023-07-26,19.299999,19.514999,19.045000,19.514999,19.008116,1487755
2023-07-27,19.570000,19.860001,19.490000,19.680000,19.168831,1103785
2023-07-28,19.530001,19.695000,19.490000,19.590000,19.081169,757508
2023-07-31,19.590000,19.629999,19.415001,19.485001,18.978897,1032529
2023-08-01,19.520000,19.525000,19.254999,19.254999,18.754869,751206
2023-08-02,19.165001,19.195000,18.780001,18.780001,18.292208,1442068
2023-08-03,18.780001,18.924999,18.674999,18.754999,18.267857,969310
2023-08-04,18.809999,18.950001,18.730000,18.950001,18.457792,1640078
2023-08-07,18.900000,18.975000,18.620001,18.805000,18.316559,570979
2023-08-08,18.730000,19.035000,18.709999,18.870001,18.379871,732483
2023-08-09,18.950001,19.129999,18.790001,18.895000,18.404221,894636
2023-08-10,18.990000,19.165001,18.990000,19.145000,18.647728,916136
2023-08-11,19.110001,19.235001,19.035000,19.035000,18.540585,440203
2023-08-14,19.049999,19.115000,18.959999,19.014999,18.521103,419768
2023-08-15,19.030001,19.070000,18.670000,18.750000,18.262987,561409
2023-08-16,18.709999,18.959999,18.700001,18.795000,18.306818,660451
2023-08-17,18.764999,18.805000,18.510000,18.530001,18.048702,1774931
2023-08-18,18.549999,18.700001,18.455000,18.639999,18.155844,613363
2023-08-21,18.650000,18.879999,18.514999,18.584999,18.102272,925074
2023-08-22,18.655001,18.745001,18.549999,18.590000,18.107143,442570
2023-08-23,18.670000,19.065001,18.670000,18.799999,18.311687,450822
2023-08-24,18.860001,18.975000,18.809999,18.855000,18.365259,367765
2023-08-25,18.830000,19.090000,18.775000,19.025000,18.530844,496402
2023-08-28,19.080000,19.129999,19.030001,19.040001,18.545456,64604
2023-08-29,19.174999,19.440001,19.150000,19.395000,18.891233,654302
2023-08-30,19.395000,19.410000,19.129999,19.264999,18.764610,675871
2023-08-31,19.254999,19.445000,19.180000,19.180000,18.681818,1801843
2023-09-01,19.180000,19.325001,19.059999,19.100000,18.603897,469219
2023-09-04,19.115000,19.160000,18.785000,18.820000,18.331169,1094513
2023-09-05,18.799999,19.014999,18.754999,18.775000,18.287336,291539
2023-09-06,18.750000,18.889999,18.665001,18.830000,18.340908,591806
2023-09-07,18.799999,19.190001,18.775000,19.139999,18.642857,1030317
2023-09-08,19.209999,19.240000,18.895000,19.180000,18.681818,564246
2023-09-11,19.225000,19.325001,19.129999,19.219999,18.720778,2681649
2023-09-12,19.299999,19.445000,19.250000,19.360001,18.857143,921500
2023-09-13,19.299999,19.365000,19.090000,19.365000,18.862013,1569517
2023-09-14,19.400000,19.650000,19.365000,19.650000,19.139610,940329
2023-09-15,19.760000,19.889999,19.700001,19.870001,19.353897,3116431
2023-09-18,19.770000,19.985001,19.674999,19.920000,19.402597,944422
2023-09-19,19.889999,20.059999,19.885000,20.010000,19.490259,1043015
2023-09-20,20.049999,20.180000,19.885000,20.180000,19.655844,1298644
2023-09-21,20.129999,20.180000,19.785000,20.010000,19.490259,1345016
2023-09-22,19.840000,19.945000,19.709999,19.805000,19.290585,639147
2023-09-25,19.770000,19.820000,19.450001,19.555000,19.047077,480676
2023-09-26,19.469999,19.655001,19.334999,19.500000,18.993505,838530
2023-09-27,19.440001,19.445000,19.230000,19.285000,18.784090,851555
2023-09-28,19.280001,19.490000,19.209999,19.219999,18.720778,1351980
2023-09-29,19.330000,19.500000,19.270000,19.275000,18.774349,846955
2023-10-02,19.315001,19.330000,18.590000,18.590000,18.107143,2182411
2023-10-03,18.610001,18.684999,18.209999,18.355000,17.878246,1606529
2023-10-04,18.430000,18.775000,18.344999,18.455000,17.975649,1243358
2023-10-05,18.629999,18.799999,18.535000,18.745001,18.258118,873616
2023-10-06,18.745001,18.840000,18.500000,18.795000,18.306818,699538
2023-10-09,18.885000,19.059999,18.840000,19.045000,18.550325,877563
2023-10-10,19.150000,19.315001,19.040001,19.195000,18.696428,1118696
2023-10-11,19.160000,19.445000,19.115000,19.299999,18.798700,1032616
2023-10-12,19.340000,19.450001,19.135000,19.219999,18.720778,1299347
2023-10-13,19.299999,19.440001,19.160000,19.254999,18.754869,740251
2023-10-16,19.250000,19.340000,19.090000,19.200001,18.701300,693982
2023-10-17,19.200001,19.334999,19.020000,19.100000,18.603897,743605
2023-10-18,19.055000,19.110001,18.975000,18.980000,18.487013,1958664
2023-10-19,18.924999,19.145000,18.775000,19.030001,18.535715,766584
2023-10-20,18.840000,18.945000,18.450001,18.580000,18.097403,1735755
2023-10-23,18.580000,18.629999,18.360001,18.495001,18.014610,771224
2023-10-24,18.405001,18.475000,17.915001,18.065001,17.595779,2053244
2023-10-25,18.094999,18.135000,17.760000,17.945000,17.478895,1180939
2023-10-26,17.900000,18.129999,17.730000,17.870001,17.405846,1121719
2023-10-27,17.900000,17.950001,17.740000,17.895000,17.430195,1114905
2023-10-30,18.045000,18.280001,17.965000,17.985001,17.517859,1171976
2023-10-31,17.825001,18.260000,17.690001,17.764999,17.303570,1534439
2023-11-01,17.780001,18.215000,17.540001,18.215000,17.741882,1296264
2023-11-02,18.295000,18.605000,18.290001,18.545000,18.063313,1056776
2023-11-03,18.545000,18.795000,18.500000,18.575001,18.092533,1040367
2023-11-06,18.520000,18.655001,18.309999,18.440001,17.961039,891074
2023-11-07,18.350000,18.485001,18.334999,18.405001,17.926949,569457
2023-11-08,18.315001,18.615000,18.315001,18.440001,17.961039,3116055
2023-11-09,18.520000,18.805000,18.450001,18.805000,18.316559,1130240
2023-11-10,18.680000,18.775000,18.485001,18.620001,18.136364,1023976
2023-11-13,18.625000,18.805000,18.580000,18.790001,18.301949,621452
2023-11-14,18.825001,19.025000,18.745001,18.945000,18.452921,1000269
2023-11-15,18.969999,19.125000,18.855000,18.965000,18.472403,929946
2023-11-16,19.004999,19.209999,18.969999,19.129999,18.633116,1243261
2023-11-17,19.209999,19.629999,19.174999,19.590000,19.081169,2709787
2023-11-20,19.145000,19.459999,18.995001,19.424999,18.920454,1778867
2023-11-21,19.440001,19.530001,19.004999,19.165001,18.667208,1427100
2023-11-22,19.225000,19.360001,19.174999,19.315001,18.813313,1289685
2023-11-23,18.930000,18.990000,18.645000,18.855000,18.365259,2065027
2023-11-24,18.700001,18.860001,18.584999,18.834999,18.345778,1024832
2023-11-27,18.834999,19.110001,18.799999,19.010000,18.516233,1257147
2023-11-28,19.040001,19.190001,18.975000,19.100000,18.603897,1282643
2023-11-29,19.125000,19.184999,19.070000,19.100000,18.603897,1016806
2023-11-30,19.129999,19.360001,19.094999,19.184999,18.686687,1906732
2023-12-01,19.275000,19.344999,19.190001,19.299999,18.798700,894774
2023-12-04,19.280001,19.530001,19.264999,19.420000,18.915585,670956
2023-12-05,19.305000,19.475000,19.250000,19.430000,18.925325,1033671
2023-12-06,19.475000,19.730000,19.440001,19.559999,19.051947,1622463
2023-12-07,19.559999,19.764999,19.495001,19.670000,19.159090,1215009
2023-12-08,19.650000,19.799999,19.565001,19.740000,19.227272,880383
2023-12-11,19.615000,19.715000,19.535000,19.600000,19.090910,1415880
2023-12-12,19.480000,19.770000,19.430000,19.620001,19.110390,1262956
2023-12-13,19.635000,19.665001,19.465000,19.584999,19.076298,2957727
2023-12-14,19.780001,19.950001,19.500000,19.500000,18.993505,1761698
2023-12-15,19.514999,19.655001,19.445000,19.525000,19.017857,2804864
2023-12-18,19.459999,19.549999,19.365000,19.365000,18.862013,1662580
2023-12-19,19.395000,19.514999,19.360001,19.445000,18.939934,4158031
2023-12-20,19.504999,19.549999,19.344999,19.365000,18.862013,914988
2023-12-21,19.350000,19.430000,19.290001,19.299999,18.798700,614183
2023-12-22,19.299999,19.424999,19.280001,19.355000,18.852272,684330
2023-12-27,19.450001,19.500000,19.240000,19.250000,18.750000,1369404
2023-12-28,18.740000,18.889999,18.459999,18.504999,18.504999,4194350
2023-12-29,18.530001,18.625000,18.455000,18.459999,18.459999,634492
2024-01-02,18.600000,18.764999,18.450001,18.530001,18.530001,926273
2024-01-03,18.530001,18.680000,18.520000,18.620001,18.620001,874857
2024-01-04,18.900000,19.160000,18.889999,19.105000,19.105000,1453160
2024-01-05,19.014999,19.165001,18.900000,19.150000,19.150000,811594
2024-01-08,19.215000,19.334999,19.110001,19.225000,19.225000,1813777
2024-01-09,19.215000,19.315001,19.025000,19.170000,19.170000,756275
2024-01-10,19.094999,19.129999,18.950001,18.969999,18.969999,1128301
2024-01-11,19.045000,19.355000,19.030001,19.170000,19.170000,1417684
2024-01-12,19.389999,19.799999,19.389999,19.799999,19.799999,2570613
2024-01-15,19.735001,19.780001,19.670000,19.770000,19.770000,934665
2024-01-16,19.760000,19.780001,19.535000,19.620001,19.620001,1194633
2024-01-17,19.450001,19.535000,19.245001,19.379999,19.379999,1468476
2024-01-18,19.275000,19.275000,19.045000,19.045000,19.045000,1685328
2024-01-19,19.045000,19.110001,18.580000,18.655001,18.655001,1877991
2024-01-22,18.725000,18.795000,18.590000,18.760000,18.760000,1022452
2024-01-23,18.760000,18.799999,18.469999,18.535000,18.535000,2611173
2024-01-24,18.549999,18.760000,18.540001,18.705000,18.705000,1090846
2024-01-25,18.680000,18.780001,18.540001,18.650000,18.650000,1007622
2024-01-26,18.709999,18.920000,18.575001,18.605000,18.605000,834455
2024-01-29,18.635000,18.660000,18.340000,18.480000,18.480000,1261685
2024-01-30,18.510000,18.549999,18.385000,18.545000,18.545000,1083184
2024-01-31,18.575001,18.670000,18.309999,18.360001,18.360001,1638228
2024-02-01,18.299999,18.395000,18.080000,18.090000,18.090000,1273885
2024-02-02,18.275000,18.295000,17.945000,17.969999,17.969999,972617
2024-02-05,17.969999,18.320000,17.945000,18.014999,18.014999,1080653
2024-02-06,17.990000,18.035000,17.705000,17.815001,17.815001,1010901
2024-02-07,17.834999,17.940001,17.555000,17.605000,17.605000,1240534
2024-02-08,17.655001,17.719999,17.485001,17.485001,17.485001,1582261
2024-02-09,17.410000,17.410000,17.065001,17.080000,17.080000,2117305
2024-02-12,17.195000,17.375000,17.150000,17.305000,17.305000,918732
2024-02-13,17.320000,17.330000,17.139999,17.170000,17.170000,1029675
2024-02-14,17.174999,17.215000,16.905001,16.905001,16.905001,1375937
2024-02-15,16.950001,17.040001,16.885000,16.959999,16.959999,1088982
2024-02-16,16.910000,16.915001,16.440001,16.480000,16.480000,2359055
2024-02-19,16.504999,16.655001,16.415001,16.580000,16.580000,1161121
2024-02-20,16.530001,16.750000,16.465000,16.750000,16.750000,1239969
2024-02-21,16.780001,17.025000,16.670000,16.945000,16.945000,1147533
2024-02-22,17.000000,17.049999,16.809999,16.865000,16.865000,4716447
2024-02-23,16.844999,16.860001,16.660000,16.725000,16.725000,1179569
2024-02-26,16.725000,16.754999,16.475000,16.590000,16.590000,883869
2024-02-27,16.510000,16.580000,16.420000,16.565001,16.565001,987923
2024-02-28,16.570000,16.594999,16.025000,16.094999,16.094999,2647605
2024-02-29,16.070000,16.709999,16.059999,16.639999,16.639999,4460740
2024-03-01,16.725000,16.735001,16.129999,16.184999,16.184999,1819897
2024-03-04,16.059999,16.129999,15.845000,16.040001,16.040001,2613994
2024-03-05,16.129999,16.305000,16.004999,16.254999,16.254999,1220614
2024-03-06,16.250000,16.905001,16.240000,16.770000,16.770000,2088947
2024-03-07,16.730000,17.100000,16.700001,16.959999,16.959999,1141103
2024-03-08,16.965000,16.965000,16.639999,16.650000,16.650000,1052696
2024-03-11,16.670000,16.799999,16.389999,16.459999,16.459999,1387428
2024-03-12,16.504999,16.535000,15.975000,15.975000,15.975000,1666901
2024-03-13,16.190001,16.309999,16.080000,16.309999,16.309999,1905054
2024-03-14,16.330000,16.475000,16.080000,16.115000,16.115000,1466578
2024-03-15,16.145000,16.405001,16.065001,16.320000,16.320000,7062856
2024-03-18,16.299999,16.309999,16.174999,16.275000,16.275000,1214044
2024-03-19,16.250000,16.299999,16.105000,16.225000,16.225000,1161411
2024-03-20,16.309999,16.445000,16.230000,16.400000,16.400000,1328827
2024-03-21,16.465000,16.590000,16.209999,16.209999,16.209999,1600610
2024-03-22,16.230000,16.639999,16.200001,16.639999,16.639999,1857852
2024-03-25,16.610001,16.764999,16.584999,16.735001,16.735001,1089820
2024-03-26,16.735001,16.815001,16.584999,16.764999,16.764999,795055
2024-03-27,16.790001,17.150000,16.745001,17.080000,17.080000,1770495
2024-03-28,17.110001,17.225000,17.035000,17.165001,17.165001,1597796
2024-04-02,17.100000,17.165001,16.764999,16.805000,16.805000,1796311
2024-04-03,16.750000,16.924999,16.629999,16.885000,16.885000,913879
2024-04-04,16.985001,17.264999,16.985001,17.150000,17.150000,1696422
2024-04-05,17.070000,17.285000,17.035000,17.080000,17.080000,1579281
2024-04-08,17.075001,17.129999,16.990000,17.010000,17.010000,1581855
2024-04-09,17.035000,17.375000,17.030001,17.295000,17.295000,1273687
2024-04-10,17.325001,17.455000,16.735001,16.920000,16.920000,2143542
2024-04-11,16.950001,17.160000,16.889999,16.934999,16.934999,3312923
2024-04-12,17.020000,17.469999,16.934999,17.299999,17.299999,2919732
2024-04-15,17.290001,17.385000,17.014999,17.084999,17.084999,1539120
2024-04-16,17.000000,17.275000,16.950001,17.165001,17.165001,1539086
2024-04-17,17.215000,17.355000,17.115000,17.295000,17.295000,1020821
2024-04-18,17.389999,17.639999,17.360001,17.549999,17.549999,1583501
2024-04-19,17.580000,17.639999,17.330000,17.420000,17.420000,1399126
2024-04-22,17.510000,17.535000,17.045000,17.145000,17.145000,2135295
2024-04-23,17.184999,17.305000,17.084999,17.235001,17.235001,1238539
2024-04-24,17.174999,17.209999,17.025000,17.110001,17.110001,1511185
2024-04-25,17.125000,17.125000,16.809999,16.934999,16.934999,1367004
2024-04-26,16.940001,17.115000,16.930000,17.055000,17.055000,1110360
2024-04-29,17.035000,17.195000,17.020000,17.135000,17.135000,1410866
2024-04-30,17.190001,17.320000,17.045000,17.100000,17.100000,972157
2024-05-02,17.125000,17.344999,17.110001,17.280001,17.280001,1422729
2024-05-03,17.344999,17.535000,17.160000,17.235001,17.235001,1543573
2024-05-06,17.275000,17.410000,17.240000,17.344999,17.344999,827058
2024-05-07,17.370001,17.594999,17.360001,17.590000,17.590000,928798
2024-05-08,17.379999,17.700001,17.230000,17.650000,17.650000,2577121
2024-05-09,17.674999,17.725000,17.325001,17.695000,17.695000,1377893
2024-05-10,17.670000,18.165001,17.639999,17.990000,17.990000,1849210
2024-05-13,17.955000,17.990000,17.785000,17.834999,17.834999,856411
2024-05-14,17.879999,18.040001,17.850000,17.955000,17.955000,1271573
2024-05-15,17.965000,18.219999,17.965000,18.209999,18.209999,1114228
2024-05-16,18.200001,18.334999,18.145000,18.230000,18.230000,784640
2024-05-17,18.180000,18.264999,18.105000,18.235001,18.235001,1273173
2024-05-20,18.260000,18.389999,18.219999,18.340000,18.340000,1321963
2024-05-21,18.315001,18.325001,18.055000,18.260000,18.260000,697236
2024-05-22,18.260000,18.559999,18.059999,18.540001,18.540001,1593164
2024-05-23,18.450001,18.500000,18.195000,18.219999,18.219999,1133480
2024-05-24,18.150000,18.205000,18.000000,18.165001,18.165001,721387
2024-05-27,18.145000,18.405001,18.090000,18.334999,18.334999,513908
2024-05-28,18.389999,18.520000,18.260000,18.320000,18.320000,743316
2024-05-29,18.260000,18.270000,18.010000,18.014999,18.014999,997591
2024-05-30,17.980000,18.245001,17.955000,18.129999,18.129999,1219268
2024-05-31,18.105000,18.299999,17.879999,18.299999,18.299999,3637168
2024-06-03,18.434999,18.590000,18.254999,18.520000,18.520000,848591
2024-06-04,18.510000,18.809999,18.510000,18.700001,18.700001,1459748
2024-06-05,18.740000,18.850000,18.480000,18.645000,18.645000,1176802
2024-06-06,18.645000,18.780001,18.555000,18.705000,18.705000,861929
2024-06-07,18.590000,18.735001,18.340000,18.434999,18.434999,2226758
2024-06-10,18.395000,18.545000,18.295000,18.545000,18.545000,576291
2024-06-11,18.549999,18.610001,18.065001,18.254999,18.254999,1960969
2024-06-12,18.415001,18.625000,18.285000,18.379999,18.379999,1564135
2024-06-13,18.350000,18.440001,18.120001,18.410000,18.410000,1073802
2024-06-14,18.400000,18.639999,18.290001,18.620001,18.620001,1585303
2024-06-17,18.650000,18.709999,18.350000,18.465000,18.465000,1201786
2024-06-18,18.430000,18.809999,18.430000,18.754999,18.754999,4048800
2024-06-19,18.709999,18.889999,18.660000,18.889999,18.889999,4220748
2024-06-20,18.895000,19.094999,18.795000,19.010000,19.010000,1242834
2024-06-21,19.070000,19.170000,18.895000,18.900000,18.900000,2654173