Date,Open,High,Low,Close,Adj Close,Volume
2023-06-22,17.930000,17.940001,17.740000,17.830000,16.087984,683160
2023-06-23,17.820000,17.965000,17.715000,17.715000,15.984220,811049
2023-06-26,17.750000,17.834999,17.655001,17.735001,16.002266,739213
2023-06-27,17.815001,17.915001,17.750000,17.865000,16.119564,425954
2023-06-28,17.920000,18.105000,17.900000,18.014999,16.254910,613591
2023-06-29,18.070000,18.115000,17.924999,17.924999,16.173702,560686
2023-06-30,17.930000,18.174999,17.930000,18.000000,16.241375,1340885
2023-07-03,18.100000,18.100000,17.600000,17.674999,15.948128,2351184
2023-07-04,16.715000,16.719999,16.500000,16.565001,15.873384,1611762
2023-07-05,16.559999,16.674999,16.230000,16.260000,15.581119,1332470
2023-07-06,16.250000,16.424999,16.150000,16.150000,15.475711,1003160
2023-07-07,16.139999,16.170000,15.935000,15.995000,15.327183,981593
2023-07-10,16.000000,16.025000,15.690000,15.730000,15.073247,1052662
2023-07-11,15.800000,15.920000,15.780000,15.835000,15.173863,786475
2023-07-12,15.855000,15.935000,15.790000,15.895000,15.231359,818624
2023-07-13,15.985000,16.070000,15.965000,16.010000,15.341557,679318
2023-07-14,16.035000,16.080000,15.950000,15.975000,15.308018,440587
2023-07-17,15.975000,16.084999,15.945000,15.955000,15.288853,446848
2023-07-18,15.950000,16.025000,15.900000,15.970000,15.303226,510880
2023-07-19,15.960000,16.195000,15.960000,16.170000,15.494876,583781
2023-07-20,16.215000,16.290001,16.205000,16.260000,15.581119,576263
2023-07-21,16.305000,16.350000,16.230000,16.350000,15.667361,643158
2023-07-24,16.180000,16.309999,16.120001,16.280001,15.600285,647115
2023-07-25,16.225000,16.225000,16.049999,16.115000,15.442172,458914
2023-07-26,16.100000,16.295000,16.045000,16.254999,15.576326,692999
2023-07-27,16.240000,16.620001,16.240000,16.465000,15.777559,1021923
2023-07-28,16.370001,16.504999,16.290001,16.295000,15.614657,738875
2023-07-31,16.299999,16.350000,16.090000,16.135000,15.461338,1099378
2023-08-01,16.145000,16.200001,16.025000,16.025000,15.355930,938669
2023-08-02,16.000000,16.049999,15.890000,15.890000,15.226567,988006
2023-08-03,15.890000,15.920000,15.735000,15.785000,15.125951,723930
2023-08-04,15.750000,15.935000,15.710000,15.895000,15.231359,531921
2023-08-07,15.900000,15.930000,15.690000,15.900000,15.236149,588148
2023-08-08,15.885000,16.025000,15.850000,15.910000,15.245731,532737
2023-08-09,15.970000,15.985000,15.805000,15.865000,15.202610,457442
2023-08-10,15.960000,16.014999,15.910000,16.004999,15.336764,332978
2023-08-11,15.970000,16.045000,15.860000,15.885000,15.221776,298265
2023-08-14,15.880000,15.895000,15.720000,15.720000,15.063664,606149
2023-08-15,15.735000,15.755000,15.430000,15.450000,14.804937,922171
2023-08-16,15.400000,15.655000,15.350000,15.450000,14.804937,628135
2023-08-17,15.410000,15.535000,15.280000,15.295000,14.656409,743040
2023-08-18,15.315000,15.410000,15.255000,15.335000,14.694739,484153
2023-08-21,15.350000,15.500000,15.280000,15.280000,14.642035,612988
2023-08-22,15.340000,15.400000,15.290000,15.300000,14.661201,420447
2023-08-23,15.370000,15.585000,15.350000,15.420000,14.776190,522972
2023-08-24,15.470000,15.530000,15.405000,15.445000,14.800146,456252
2023-08-25,15.430000,15.585000,15.385000,15.535000,14.886389,464706
2023-08-28,15.540000,15.600000,15.525000,15.590000,14.939093,155572
2023-08-29,15.605000,15.760000,15.605000,15.705000,15.049291,1147852
2023-08-30,15.725000,15.800000,15.650000,15.700000,15.044499,437410
2023-08-31,15.725000,15.870000,15.725000,15.745000,15.087621,1249703
2023-09-01,15.745000,15.850000,15.655000,15.685000,15.030127,549818
2023-09-04,15.735000,15.770000,15.540000,15.540000,14.891180,417457
2023-09-05,15.515000,15.700000,15.515000,15.630000,14.977423,478980
2023-09-06,15.625000,15.665000,15.520000,15.580000,14.929509,546821
2023-09-07,15.550000,15.785000,15.490000,15.730000,15.073247,708431
2023-09-08,15.790000,15.935000,15.760000,15.920000,15.255314,595619
2023-09-11,15.900000,16.025000,15.900000,16.000000,15.331974,759049
2023-09-12,16.000000,16.215000,16.000000,16.155001,15.480503,712377
2023-09-13,16.105000,16.205000,16.010000,16.150000,15.475711,669034
2023-09-14,16.160000,16.389999,16.105000,16.350000,15.667361,909954
2023-09-15,16.420000,16.495001,16.330000,16.430000,15.744021,1915169
2023-09-18,16.400000,16.490000,16.264999,16.355000,15.672152,442659
2023-09-19,16.330000,16.580000,16.330000,16.465000,15.777559,598288
2023-09-20,16.465000,16.635000,16.410000,16.570000,15.878176,648668
2023-09-21,16.540001,16.559999,16.174999,16.215000,15.537997,768561
2023-09-22,16.135000,16.285000,15.985000,16.045000,15.375095,761929
2023-09-25,16.070000,16.090000,15.775000,15.865000,15.202610,642536
2023-09-26,15.765000,15.970000,15.690000,15.880000,15.216985,616402
2023-09-27,15.800000,15.855000,15.650000,15.650000,14.996587,818399
2023-09-28,15.685000,15.825000,15.580000,15.580000,14.929509,568399
2023-09-29,15.650000,15.820000,15.600000,15.680000,15.025335,967669
2023-10-02,15.740000,15.800000,15.320000,15.335000,14.694739,1341560
2023-10-03,15.325000,15.585000,15.255000,15.310000,14.670783,1057302
2023-10-04,15.335000,15.570000,15.280000,15.460000,14.814520,1172908
2023-10-05,15.570000,15.820000,15.525000,15.755000,15.097203,913884
2023-10-06,15.800000,15.800000,15.545000,15.750000,15.092412,628296
2023-10-09,15.795000,15.950000,15.795000,15.940000,15.274479,637478
2023-10-10,16.000000,16.174999,15.950000,16.150000,15.475711,1016186
2023-10-11,16.145000,16.370001,16.135000,16.209999,15.533205,937260
2023-10-12,16.209999,16.270000,16.070000,16.110001,15.437382,456870
2023-10-13,16.120001,16.209999,16.059999,16.120001,15.446964,469089
2023-10-16,16.105000,16.209999,16.030001,16.135000,15.461338,590363
2023-10-17,16.139999,16.209999,16.025000,16.045000,15.375095,585089
2023-10-18,16.000000,16.065001,15.905000,15.935000,15.269689,928105
2023-10-19,15.900000,16.000000,15.780000,15.980000,15.312809,559455
2023-10-20,15.850000,15.970000,15.660000,15.780000,15.121160,1297113
2023-10-23,15.760000,15.810000,15.480000,15.625000,14.972631,854974
2023-10-24,15.650000,16.320000,15.620000,15.890000,15.226567,1285829
2023-10-25,15.835000,16.129999,15.815000,16.120001,15.446964,569021
2023-10-26,16.100000,16.165001,15.900000,15.905000,15.240940,456436
2023-10-27,15.945000,16.020000,15.765000,15.765000,15.106786,792562
2023-10-30,15.825000,16.004999,15.825000,15.885000,15.221776,429023
2023-10-31,15.985000,16.094999,15.740000,15.795000,15.135533,626760
2023-11-01,15.800000,15.890000,15.635000,15.825000,15.164280,465251
2023-11-02,15.945000,16.105000,15.845000,16.090000,15.418217,671169
2023-11-03,16.105000,16.240000,16.045000,16.100000,15.427799,514538
2023-11-06,16.105000,16.150000,16.010000,16.110001,15.437382,452705
2023-11-07,16.070000,16.139999,15.960000,15.975000,15.308018,469816
2023-11-08,15.980000,15.985000,15.790000,15.805000,15.145116,620832
2023-11-09,15.810000,15.970000,15.810000,15.870000,15.207401,552467
2023-11-10,15.850000,15.920000,15.750000,15.835000,15.173863,521673
2023-11-13,15.825000,15.875000,15.740000,15.835000,15.173863,778630
2023-11-14,15.880000,16.025000,15.820000,15.980000,15.312809,567459
2023-11-15,16.000000,16.094999,15.875000,15.940000,15.274479,492170
2023-11-16,15.990000,16.129999,15.990000,16.040001,15.370305,409688
2023-11-17,16.084999,16.209999,16.075001,16.170000,15.494876,862351
2023-11-20,16.160000,16.400000,16.155001,16.365000,15.681734,665824
2023-11-21,16.365000,16.475000,16.264999,16.305000,15.624240,517787
2023-11-22,16.365000,16.530001,16.334999,16.375000,15.691318,578860
2023-11-23,16.389999,16.594999,16.365000,16.580000,15.887758,600546
2023-11-24,16.580000,16.809999,16.575001,16.754999,16.055450,999187
2023-11-27,16.775000,16.834999,16.719999,16.730000,16.031494,699557
2023-11-28,16.735001,16.795000,16.600000,16.775000,16.074615,692159
2023-11-29,16.770000,16.875000,16.705000,16.745001,16.045870,499416
2023-11-30,16.770000,16.940001,16.725000,16.799999,16.098572,2030853
2023-12-01,16.840000,16.995001,16.715000,16.995001,16.285433,939667
2023-12-04,16.965000,17.094999,16.940001,17.094999,16.381256,821262
2023-12-05,17.100000,17.225000,17.075001,17.180000,16.462708,835711
2023-12-06,17.225000,17.240000,16.924999,16.990000,16.280640,1072042
2023-12-07,17.020000,17.065001,16.860001,16.879999,16.175232,811338
2023-12-08,16.905001,16.905001,16.745001,16.860001,16.156069,718506
2023-12-11,16.889999,16.895000,16.674999,16.764999,16.065033,738565
2023-12-12,16.775000,16.940001,16.754999,16.754999,16.055450,950816
2023-12-13,16.799999,16.934999,16.725000,16.850000,16.146486,1828645
2023-12-14,17.000000,17.025000,16.780001,16.920000,16.213562,2005003
2023-12-15,16.920000,16.934999,16.680000,16.730000,16.031494,2821280
2023-12-18,16.730000,16.875000,16.615000,16.750000,16.050661,1700419
2023-12-19,16.754999,16.805000,16.635000,16.670000,15.974001,1276913
2023-12-20,16.059999,16.059999,15.645000,15.670000,15.670000,1543711
2023-12-21,15.620000,15.665000,15.475000,15.500000,15.500000,1062563
2023-12-22,15.500000,15.590000,15.450000,15.575000,15.575000,859676
2023-12-27,15.510000,15.570000,15.410000,15.430000,15.430000,1051473
2023-12-28,15.445000,15.510000,15.300000,15.300000,15.300000,1610896
2023-12-29,15.310000,15.365000,15.235000,15.265000,15.265000,954195
2024-01-02,15.370000,15.540000,15.255000,15.420000,15.420000,1405910
2024-01-03,15.430000,15.635000,15.420000,15.575000,15.575000,912044
2024-01-04,15.640000,15.830000,15.640000,15.795000,15.795000,772255
2024-01-05,15.740000,15.830000,15.585000,15.730000,15.730000,608174
2024-01-08,15.700000,15.715000,15.490000,15.625000,15.625000,613968
2024-01-09,15.615000,15.795000,15.585000,15.735000,15.735000,614534
2024-01-10,15.690000,15.710000,15.545000,15.630000,15.630000,509441
2024-01-11,15.645000,15.755000,15.585000,15.585000,15.585000,1205710
2024-01-12,15.600000,15.885000,15.595000,15.885000,15.885000,637092
2024-01-15,15.845000,15.870000,15.790000,15.855000,15.855000,406720
2024-01-16,15.775000,15.940000,15.735000,15.820000,15.820000,654244
2024-01-17,15.735000,15.735000,15.480000,15.625000,15.625000,994254
2024-01-18,15.520000,15.565000,15.385000,15.505000,15.505000,582811
2024-01-19,15.560000,15.585000,15.185000,15.190000,15.190000,1546351
2024-01-22,15.210000,15.550000,15.210000,15.425000,15.425000,725085
2024-01-23,15.470000,15.580000,15.285000,15.285000,15.285000,647348
2024-01-24,15.360000,15.390000,15.200000,15.275000,15.275000,962157
2024-01-25,15.295000,15.295000,15.110000,15.110000,15.110000,945347
2024-01-26,15.195000,15.195000,14.960000,14.965000,14.965000,1244959
2024-01-29,15.025000,15.140000,14.995000,15.065000,15.065000,722757
2024-01-30,15.090000,15.090000,14.850000,15.005000,15.005000,1116120
2024-01-31,15.055000,15.160000,15.040000,15.090000,15.090000,816780
2024-02-01,15.050000,15.100000,14.910000,14.935000,14.935000,745554
2024-02-02,15.010000,15.075000,14.880000,14.890000,14.890000,624074
2024-02-05,14.900000,15.000000,14.710000,14.740000,14.740000,894606
2024-02-06,14.710000,14.740000,14.580000,14.700000,14.700000,892645
2024-02-07,14.675000,14.720000,14.465000,14.465000,14.465000,1126384
2024-02-08,14.460000,14.635000,14.380000,14.520000,14.520000,750346
2024-02-09,14.500000,14.590000,14.395000,14.405000,14.405000,1253231
2024-02-12,14.445000,14.625000,14.415000,14.580000,14.580000,671835
2024-02-13,14.600000,14.625000,14.450000,14.450000,14.450000,922520
2024-02-14,14.450000,14.520000,14.335000,14.335000,14.335000,629754
2024-02-15,14.350000,14.480000,14.315000,14.460000,14.460000,630645
2024-02-16,14.500000,14.585000,14.360000,14.475000,14.475000,699217
2024-02-19,14.475000,14.585000,14.470000,14.550000,14.550000,497001
2024-02-20,14.500000,15.100000,14.500000,14.925000,14.925000,2043196
2024-02-21,15.300000,15.305000,14.815000,15.030000,15.030000,1741328
2024-02-22,15.030000,15.055000,14.630000,14.680000,14.680000,2435920
2024-02-23,14.600000,14.645000,14.280000,14.365000,14.365000,1563289
2024-02-26,14.310000,14.345000,13.610000,13.620000,13.620000,2623953
2024-02-27,13.600000,13.650000,13.280000,13.360000,13.360000,1673803
2024-02-28,13.425000,13.465000,13.130000,13.170000,13.170000,1867506
2024-02-29,13.150000,13.520000,13.150000,13.345000,13.345000,5000726
2024-03-01,13.350000,13.385000,13.085000,13.205000,13.205000,1310898
2024-03-04,13.240000,13.295000,12.915000,13.000000,13.000000,1481100
2024-03-05,13.035000,13.245000,12.920000,13.240000,13.240000,1041172
2024-03-06,13.200000,13.350000,13.165000,13.190000,13.190000,1001001
2024-03-07,13.155000,13.500000,13.155000,13.455000,13.455000,1324171
2024-03-08,13.450000,13.475000,13.295000,13.390000,13.390000,924950
2024-03-11,13.400000,13.665000,13.390000,13.505000,13.505000,770091
2024-03-12,13.515000,13.555000,13.280000,13.305000,13.305000,853620
2024-03-13,13.320000,13.420000,13.245000,13.250000,13.250000,958382
2024-03-14,13.275000,13.425000,13.230000,13.265000,13.265000,1279916
2024-03-15,13.300000,13.380000,13.225000,13.260000,13.260000,5026046
2024-03-18,13.230000,13.285000,13.095000,13.180000,13.180000,1125842
2024-03-19,13.225000,13.420000,13.205000,13.405000,13.405000,1035980
2024-03-20,13.365000,13.440000,13.310000,13.385000,13.385000,861286
2024-03-21,13.440000,13.440000,13.180000,13.180000,13.180000,1396220
2024-03-22,13.290000,13.605000,13.260000,13.420000,13.420000,1550984
2024-03-25,13.420000,13.590000,13.410000,13.580000,13.580000,1088848
2024-03-26,13.560000,13.580000,13.400000,13.505000,13.505000,999392
2024-03-27,13.500000,13.700000,13.475000,13.695000,13.695000,1015335
2024-03-28,13.800000,13.860000,13.665000,13.765000,13.765000,1063798
2024-04-02,13.700000,13.870000,13.690000,13.710000,13.710000,1186048
2024-04-03,13.700000,13.780000,13.600000,13.740000,13.740000,678366
2024-04-04,13.760000,13.850000,13.710000,13.790000,13.790000,661457
2024-04-05,13.750000,13.790000,13.360000,13.360000,13.360000,1544268
2024-04-08,13.360000,13.490000,13.330000,13.380000,13.380000,915873
2024-04-09,13.450000,13.660000,13.350000,13.570000,13.570000,1071298
2024-04-10,13.660000,13.820000,13.420000,13.500000,13.500000,1163040
2024-04-11,13.510000,13.770000,13.510000,13.600000,13.600000,2169630
2024-04-12,13.670000,13.810000,13.600000,13.750000,13.750000,1116635
2024-04-15,13.700000,13.750000,13.560000,13.560000,13.560000,847876
2024-04-16,13.530000,13.620000,13.430000,13.430000,13.430000,1210298
2024-04-17,13.460000,13.520000,13.330000,13.500000,13.500000,1003046
2024-04-18,13.560000,13.650000,13.450000,13.490000,13.490000,1097159
2024-04-19,13.550000,13.690000,13.430000,13.680000,13.680000,888742
2024-04-22,13.720000,13.870000,13.690000,13.870000,13.870000,1070062
2024-04-23,13.830000,13.960000,13.720000,13.880000,13.880000,985861
2024-04-24,13.810000,13.850000,13.700000,13.810000,13.810000,989792
2024-04-25,13.860000,13.860000,13.660000,13.720000,13.720000,888070
2024-04-26,13.720000,13.860000,13.720000,13.780000,13.780000,861265
2024-04-29,13.800000,13.940000,13.720000,13.900000,13.900000,788690
2024-04-30,13.900000,13.930000,13.760000,13.760000,13.760000,838153
2024-05-02,13.800000,13.910000,13.730000,13.730000,13.730000,865443
2024-05-03,13.770000,14.150000,13.750000,14.050000,14.050000,947706
2024-05-06,14.150000,14.150000,14.000000,14.050000,14.050000,650932
2024-05-07,14.100000,14.160000,14.010000,14.090000,14.090000,828865
2024-05-08,14.120000,14.170000,14.030000,14.130000,14.130000,686271
2024-05-09,14.140000,14.340000,14.070000,14.300000,14.300000,684483
2024-05-10,14.300000,14.520000,14.300000,14.490000,14.490000,1040942
2024-05-13,14.500000,14.520000,14.350000,14.380000,14.380000,1041321
2024-05-14,14.390000,14.470000,14.220000,14.340000,14.340000,935793
2024-05-15,14.330000,14.460000,14.230000,14.240000,14.240000,1171513
2024-05-16,14.250000,14.270000,14.120000,14.130000,14.130000,959254
2024-05-17,14.130000,14.170000,14.060000,14.090000,14.090000,815355
2024-05-20,14.110000,14.410000,14.110000,14.250000,14.250000,1056448
2024-05-21,14.240000,14.250000,14.070000,14.090000,14.090000,1011296
2024-05-22,14.060000,14.060000,13.830000,13.880000,13.880000,1995706
2024-05-23,13.850000,13.910000,13.780000,13.820000,13.820000,1380498
2024-05-24,13.770000,13.950000,13.630000,13.950000,13.950000,1325159
2024-05-27,13.960000,14.140000,13.930000,14.140000,14.140000,744225
2024-05-28,14.170000,14.220000,13.950000,13.960000,13.960000,1327224
2024-05-29,13.920000,13.990000,13.780000,13.800000,13.800000,1184975
2024-05-30,13.770000,14.030000,13.770000,14.030000,14.030000,1262953
2024-05-31,14.030000,14.130000,13.930000,14.130000,14.130000,21278643
2024-06-03,14.190000,14.400000,14.150000,14.370000,14.370000,1120324
2024-06-04,14.370000,14.570000,14.320000,14.540000,14.540000,2561685
2024-06-05,14.580000,14.750000,14.560000,14.690000,14.690000,1594064
2024-06-06,14.700000,14.820000,14.670000,14.800000,14.800000,1075673
2024-06-07,14.800000,14.950000,14.620000,14.670000,14.670000,1358529
2024-06-10,14.710000,14.800000,14.580000,14.650000,14.650000,1182164
2024-06-11,14.620000,14.650000,14.150000,14.300000,14.300000,1930941
2024-06-12,14.360000,14.450000,14.230000,14.230000,14.230000,1136094
2024-06-13,14.210000,14.230000,14.010000,14.080000,14.080000,1211350
2024-06-14,14.100000,14.300000,14.020000,14.240000,14.240000,1036690
2024-06-17,14.270000,14.310000,13.960000,14.030000,14.030000,2648008
2024-06-18,14.080000,14.410000,14.080000,14.410000,14.410000,1388398
2024-06-19,14.440000,14.480000,14.280000,14.340000,14.340000,791613
2024-06-20,14.360000,14.560000,14.290000,14.530000,14.530000,1625099
2024-06-21,14.640000,14.640000,14.460000,14.550000,14.550000,3671217